{
  "project_info": {
    "project_number": "174092849937",
    "firebase_url": "https://gcp-tutorial-289613.firebaseio.com",
    "project_id": "gcp-tutorial-289613",
    "storage_bucket": "gcp-tutorial-289613.appspot.com"
  },
  "client": [
    {
      "client_info": {
        "mobilesdk_app_id": "1:174092849937:android:aec12a11c2a4b3c0bb72b0",
        "android_client_info": {
          "package_name": "apriliana.risqy.acoba0e"
        }
      },
      "oauth_client": [
        {
          "client_id": "174092849937-e745a5msvsru537ra2jnir1qb2oc1mr3.apps.googleusercontent.com",
          "client_type": 3
        }
      ],
      "api_key": [
        {
          "current_key": "AIzaSyDHxmZJRdztlRj8sSA2YsXlC-e3aiEMNY8"
        }
      ],
      "services": {
        "appinvite_service": {
          "other_platform_oauth_client": [
            {
              "client_id": "174092849937-e745a5msvsru537ra2jnir1qb2oc1mr3.apps.googleusercontent.com",
              "client_type": 3
            }
          ]
        }
      }
    },
    {
      "client_info": {
        "mobilesdk_app_id": "1:174092849937:android:9743da558a7d2042bb72b0",
        "android_client_info": {
          "package_name": "apriliana.risqy.appx0d"
        }
      },
      "oauth_client": [
        {
          "client_id": "174092849937-e745a5msvsru537ra2jnir1qb2oc1mr3.apps.googleusercontent.com",
          "client_type": 3
        }
      ],
      "api_key": [
        {
          "current_key": "AIzaSyDHxmZJRdztlRj8sSA2YsXlC-e3aiEMNY8"
        }
      ],
      "services": {
        "appinvite_service": {
          "other_platform_oauth_client": [
            {
              "client_id": "174092849937-e745a5msvsru537ra2jnir1qb2oc1mr3.apps.googleusercontent.com",
              "client_type": 3
            }
          ]
        }
      }
    },
    {
      "client_info": {
        "mobilesdk_app_id": "1:174092849937:android:27ee1084503c3ae0bb72b0",
        "android_client_info": {
          "package_name": "apriliana.risqy.appx0e"
        }
      },
      "oauth_client": [
        {
          "client_id": "174092849937-e745a5msvsru537ra2jnir1qb2oc1mr3.apps.googleusercontent.com",
          "client_type": 3
        }
      ],
      "api_key": [
        {
          "current_key": "AIzaSyDHxmZJRdztlRj8sSA2YsXlC-e3aiEMNY8"
        }
      ],
      "services": {
        "appinvite_service": {
          "other_platform_oauth_client": [
            {
              "client_id": "174092849937-e745a5msvsru537ra2jnir1qb2oc1mr3.apps.googleusercontent.com",
              "client_type": 3
            }
          ]
        }
      }
    },
    {
      "client_info": {
        "mobilesdk_app_id": "1:174092849937:android:4837883a55fd7d21bb72b0",
        "android_client_info": {
          "package_name": "apriliana.risqy.coba0d"
        }
      },
      "oauth_client": [
        {
          "client_id": "174092849937-e745a5msvsru537ra2jnir1qb2oc1mr3.apps.googleusercontent.com",
          "client_type": 3
        }
      ],
      "api_key": [
        {
          "current_key": "AIzaSyDHxmZJRdztlRj8sSA2YsXlC-e3aiEMNY8"
        }
      ],
      "services": {
        "appinvite_service": {
          "other_platform_oauth_client": [
            {
              "client_id": "174092849937-e745a5msvsru537ra2jnir1qb2oc1mr3.apps.googleusercontent.com",
              "client_type": 3
            }
          ]
        }
      }
    }
  ],
  "configuration_version": "1"
}